{
  "main": {
    "name":"BUI THIEN KHIEM",
    "description":"I am a fullstack software engineer with 10+ years working experience in software development industry, recently i so excited with blockchain especially crypto currency, so i'm seeking a opportunity to join a company that build a excellent blockchain application",
    "image":"profilepic.jpg",
    "bio":"Hi everyone, I'm Khiem, a friendly and positive person, i'm passionate about software development, and love to build the application that's great and valuable, i spend a lot of my leisure time for learning new things in IT industry, my other favorite is traveling with my family and my friends",
    "contactmessage":"Here is where you should write your message to readers to have them get in contact with you. I want to ",
    "email": "buithien.khiem2717@gmail.com",
    "phone": "034-746-5959",
    "github":"https://github.com/nordicgiant2/react-nice-resume",
    "project":"https://github.com/nordicgiant2/react-nice-resume",
    "address":{
      "street":"153/16 Cao Thang street, ward 11, district 10, Ho Chi Minh city, Viet Nam",
      "zip": "(71000)"
    },
    "website": "http://www.timbakerdev.com",
    "resumedownload":"http://timbakerdev.com",
    "social":[
      {
        "name":"facebook",
        "url":"#",
        "className":"fa fa-facebook"
      },
      {
        "name":"twitter",
        "url":"#",
        "className":"fa fa-twitter"
      },
      {
        "name":"linkedin",
        "url":"#",
        "className":"fa fa-linkedin"
      },
      {
        "name":"instagram",
        "url":"#",
        "className":"fa fa-instagram"
      },
      {
        "name":"github",
        "url":"#",
        "className":"fa fa-github"
      }
    ]
  },
  "resume":{
    "education":[
      {
        "school":"Ho Chi Minh City University of Foreign Language – Information Technology (HUFLIT)",
        "degree":"B.S. Information & Technology",
        "graduated":"August 2012",
        "description":"Major in software engineer. Studying focus on computer science, application development, web application, database design, Personal interests is Artificial Intelligence, Expert System, Business Intelligence Applications, Data Mindning…"
      }
    ],
    "work":[
      {
        "company":"Personal project - Raca Tool",
        "title":"Senior fullstack Software engineer",
        "description":"Raca Tool is a website to trade NFT on Raca ecosystem, automated buy and notify good deals via telegram, it was written on ReactJs and EtherJs",
        "link":"https://buithien.gitlab.io/racatool/"
      },
      {
        "company":"TranSwap",
        "title":"Senior fullstack Software engineer",
        "years":"Mid 2020 - Present",
        "description":"TranSwap was founded in Singapore in 2015. It was established to transcend business banking and remove cross-border barriers. TranSwap make global payments simple and accessible for SMEs and startups. TranSwap customers can transfer and receive payments in multiple currencies in over 180 countries around the world."
      },
      {
        "company":"Emerge APP",
        "title":"Senior fullstack Software engineer",
        "years":"Mid 2016 - Mid 2020",
        "description":"A Saas application which designed to support multi tenants, Emerge app is online inventory management system with a lot features to help user can purchase, order and manage their products."
      },
      {
        "company":"NashTech",
        "title":"Developer and senior developer",
        "years":"Late 2012 - Mid 2016",
        "description":"NashTech is a part of Harvey Nash group, the leading global provider of talent and technology solution, NashTech delivery smart solutions that solve business challenges and create value. NashTech usually on top best environment to work."
      }
    ],
    "skills":[
      {
        "name":"Blockchain / Solidity / etherJs",
        "level":"70%"
      },
      {
        "name":"C# / .Net Core / Sql server DB",
        "level":"80%"
      },
      {
        "name":"ReactJs / Redux",
        "level":"80%"
      },
      {
        "name":"Azure Stack / CICD",
        "level":"70%"
      }
    ]
  }
}
